digraph behavior_mock {

    rankdir=LR
    edge[dir=none]

    "Discussion" -> "Social cognition" -> "Social schema theory"
    "Social cognition" -> "Cultural differences"
    "Social cognition" -> "Social cognitive neuroscience" -> "Phineas Gage"
}